practice3/ALL0001/F0001CH1.CSV

Record Length,2.500000e+03,,  -0.001520000000,  -1.68000,
Sample Interval,1.000000e-06,,  -0.001519000000,  -1.68000,
Trigger Point,1.520000000000e+03,,  -0.001518000000,  -1.60000,
,,,  -0.001517000000,  -1.68000,
,,,  -0.001516000000,  -1.60000,
,,,  -0.001515000000,  -1.60000,
Source,CH1,,  -0.001514000000,  -1.52000,
Vertical Units,V,,  -0.001513000000,  -1.36000,
Vertical Scale,2.000000e+00,,  -0.001512000000,  -1.44000,
Vertical Offset,0.000000e+00,,  -0.001511000000,  -1.36000,
Horizontal Units,s,,  -0.001510000000,  -1.44000,
Horizontal Scale,2.500000e-04,,  -0.001509000000,  -1.44000,
Pt Fmt,Y,,  -0.001508000000,  -1.68000,
Yzero,0.000000e+00,,  -0.001507000000,  -1.60000,
Probe Atten,1.000000e+00,,  -0.001506000000,  -1.52000,
Model Number,TDS1012C-EDU,,  -0.001505000000,  -1.44000,
Serial Number,C012238,,  -0.001504000000,  -1.52000,
Firmware Version,FV:v25.07,,  -0.001503000000,  -1.36000,
,,,-00.001502000000,  -1.52000,
,,,-00.001501000000,  -1.52000,
,,,-00.001500000000,  -1.60000,
,,,-00.001499000000,  -1.60000,
,,,-00.001498000000,  -1.44000,
,,,-00.001497000000,  -1.68000,
,,,-00.001496000000,  -1.68000,
,,,-00.001495000000,  -1.60000,
,,,-00.001494000000,  -1.52000,
,,,-00.001493000000,  -1.60000,
,,,-00.001492000000,  -1.52000,
,,,-00.001491000000,  -1.44000,
,,,-00.001490000000,  -1.68000,
,,,-00.001489000000,  -1.68000,
,,,-00.001488000000,  -1.68000,
,,,-00.001487000000,  -1.68000,
,,,-00.001486000000,  -1.52000,
,,,-00.001485000000,  -1.52000,
,,,-00.001484000000,  -1.36000,
,,,-00.001483000000,  -1.44000,
,,,-00.001482000000,  -1.52000,
,,,-00.001481000000,  -1.60000,
,,,-00.001480000000,  -1.52000,
,,,-00.001479000000,  -1.60000,
,,,-00.001478000000,  -1.52000,
,,,-00.001477000000,  -1.52000,
,,,-00.001476000000,  -1.36000,
,,,-00.001475000000,   0.40000,
,,,-00.001474000000,  -0.64000,
,,,-00.001473000000,  -0.88000,
,,,-00.001472000000,  -1.04000,
,,,-00.001471000000,  -0.88000,
,,,-00.001470000000,  -1.04000,
,,,-00.001469000000,  -0.88000,
,,,-00.001468000000,  -0.88000,
,,,-00.001467000000,  -0.56000,
,,,-00.001466000000,  -0.48000,
,,,-00.001465000000,  -0.40000,
,,,-00.001464000000,  -0.32000,
,,,-00.001463000000,  -0.40000,
,,,-00.001462000000,  -0.48000,
,,,-00.001461000000,  -0.48000,
,,,-00.001460000000,  -0.48000,
,,,-00.001459000000,  -0.48000,
,,,-00.001458000000,  -0.32000,
,,,-00.001457000000,  -0.40000,
,,,-00.001456000000,  -0.16000,
,,,-00.001455000000,  -0.16000,
,,,-00.001454000000,  -0.08000,
,,,-00.001453000000,  -0.08000,
,,,-00.001452000000,  -0.24000,
,,,-00.001451000000,   0.00000,
,,,-00.001450000000,  -0.08000,
,,,-00.001449000000,   0.24000,
,,,-00.001448000000,   0.32000,
,,,-00.001447000000,   0.32000,
,,,-00.001446000000,   0.56000,
,,,-00.001445000000,   0.48000,
,,,-00.001444000000,   0.72000,
,,,-00.001443000000,   0.64000,
,,,-00.001442000000,   0.80000,
,,,-00.001441000000,   0.72000,
,,,-00.001440000000,   0.80000,
,,,-00.001439000000,   0.72000,
,,,-00.001438000000,   0.96000,
,,,-00.001437000000,   1.04000,
,,,-00.001436000000,   1.04000,
,,,-00.001435000000,   0.96000,
,,,-00.001434000000,   1.04000,
,,,-00.001433000000,   0.96000,
,,,-00.001432000000,   0.96000,
,,,-00.001431000000,   0.96000,
,,,-00.001430000000,   0.96000,
,,,-00.001429000000,   1.12000,
,,,-00.001428000000,   0.96000,
,,,-00.001427000000,   1.04000,
,,,-00.001426000000,   0.96000,
,,,-00.001425000000,   0.96000,
,,,-00.001424000000,   1.12000,
,,,-00.001423000000,   0.88000,
,,,-00.001422000000,   0.96000,
,,,-00.001421000000,   0.96000,
,,,-00.001420000000,   1.04000,
,,,-00.001419000000,   1.20000,
,,,-00.001418000000,   1.28000,
,,,-00.001417000000,   1.28000,
,,,-00.001416000000,   1.20000,
,,,-00.001415000000,   1.28000,
,,,-00.001414000000,   1.20000,
,,,-00.001413000000,   1.28000,
,,,-00.001412000000,   1.20000,
,,,-00.001411000000,   1.28000,
,,,-00.001410000000,   1.28000,
,,,-00.001409000000,   1.36000,
,,,-00.001408000000,   1.44000,
,,,-00.001407000000,   1.44000,
,,,-00.001406000000,   1.44000,
,,,-00.001405000000,   1.36000,
,,,-00.001404000000,   1.52000,
,,,-00.001403000000,   1.36000,
,,,-00.001402000000,   1.36000,
,,,-00.001401000000,   1.28000,
,,,-00.001400000000,   1.36000,
,,,-00.001399000000,   1.36000,
,,,-00.001398000000,   1.44000,
,,,-00.001397000000,   1.52000,
,,,-00.001396000000,   1.52000,
,,,-00.001395000000,   1.44000,
,,,-00.001394000000,   1.44000,
,,,-00.001393000000,   1.28000,
,,,-00.001392000000,   1.28000,
,,,-00.001391000000,   1.36000,
,,,-00.001390000000,   1.36000,
,,,-00.001389000000,   1.44000,
,,,-00.001388000000,   1.44000,
,,,-00.001387000000,   1.52000,
,,,-00.001386000000,   1.52000,
,,,-00.001385000000,   1.52000,
,,,-00.001384000000,   1.60000,
,,,-00.001383000000,   1.52000,
,,,-00.001382000000,   1.44000,
,,,-00.001381000000,   1.44000,
,,,-00.001380000000,   1.44000,
,,,-00.001379000000,   1.52000,
,,,-00.001378000000,   1.36000,
,,,-00.001377000000,   1.60000,
,,,-00.001376000000,   1.52000,
,,,-00.001375000000,   1.68000,
,,,-00.001374000000,   1.44000,
,,,-00.001373000000,   1.52000,
,,,-00.001372000000,   1.52000,
,,,-00.001371000000,   1.60000,
,,,-00.001370000000,   1.52000,
,,,-00.001369000000,   1.60000,
,,,-00.001368000000,   1.52000,
,,,-00.001367000000,   1.44000,
,,,-00.001366000000,   1.28000,
,,,-00.001365000000,   1.44000,
,,,-00.001364000000,   1.52000,
,,,-00.001363000000,   1.44000,
,,,-00.001362000000,   1.60000,
,,,-00.001361000000,   1.60000,
,,,-00.001360000000,   1.60000,
,,,-00.001359000000,   1.52000,
,,,-00.001358000000,   1.52000,
,,,-00.001357000000,   1.60000,
,,,-00.001356000000,   1.44000,
,,,-00.001355000000,   1.60000,
,,,-00.001354000000,   1.60000,
,,,-00.001353000000,   1.52000,
,,,-00.001352000000,   1.52000,
,,,-00.001351000000,   1.36000,
,,,-00.001350000000,   1.52000,
,,,-00.001349000000,   1.44000,
,,,-00.001348000000,   1.60000,
,,,-00.001347000000,   1.60000,
,,,-00.001346000000,   1.68000,
,,,-00.001345000000,   1.52000,
,,,-00.001344000000,   1.52000,
,,,-00.001343000000,   1.36000,
,,,-00.001342000000,   1.60000,
,,,-00.001341000000,   1.60000,
,,,-00.001340000000,   1.68000,
,,,-00.001339000000,   1.68000,
,,,-00.001338000000,   1.52000,
,,,-00.001337000000,   1.60000,
,,,-00.001336000000,   1.44000,
,,,-00.001335000000,   1.60000,
,,,-00.001334000000,   1.60000,
,,,-00.001333000000,   1.68000,
,,,-00.001332000000,   1.60000,
,,,-00.001331000000,   1.52000,
,,,-00.001330000000,   1.60000,
,,,-00.001329000000,   1.52000,
,,,-00.001328000000,   1.60000,
,,,-00.001327000000,   1.68000,
,,,-00.001326000000,   1.60000,
,,,-00.001325000000,   1.52000,
,,,-00.001324000000,   1.52000,
,,,-00.001323000000,   1.60000,
,,,-00.001322000000,   1.52000,
,,,-00.001321000000,   1.52000,
,,,-00.001320000000,   1.44000,
,,,-00.001319000000,   1.52000,
,,,-00.001318000000,   1.52000,
,,,-00.001317000000,   1.60000,
,,,-00.001316000000,   1.52000,
,,,-00.001315000000,   1.60000,
,,,-00.001314000000,   1.60000,
,,,-00.001313000000,   1.44000,
,,,-00.001312000000,   1.52000,
,,,-00.001311000000,   1.52000,
,,,-00.001310000000,   1.68000,
,,,-00.001309000000,   1.52000,
,,,-00.001308000000,   1.76000,
,,,-00.001307000000,   1.60000,
,,,-00.001306000000,   1.52000,
,,,-00.001305000000,   1.44000,
,,,-00.001304000000,   1.52000,
,,,-00.001303000000,   1.60000,
,,,-00.001302000000,   1.60000,
,,,-00.001301000000,   1.60000,
,,,-00.001300000000,   1.60000,
,,,-00.001299000000,   1.60000,
,,,-00.001298000000,   1.52000,
,,,-00.001297000000,   1.52000,
,,,-00.001296000000,   1.52000,
,,,-00.001295000000,   1.52000,
,,,-00.001294000000,   1.52000,
,,,-00.001293000000,   1.52000,
,,,-00.001292000000,   1.52000,
,,,-00.001291000000,   1.52000,
,,,-00.001290000000,   1.68000,
,,,-00.001289000000,   1.52000,
,,,-00.001288000000,   1.52000,
,,,-00.001287000000,   1.52000,
,,,-00.001286000000,   1.44000,
,,,-00.001285000000,   1.60000,
,,,-00.001284000000,   1.60000,
,,,-00.001283000000,   1.68000,
,,,-00.001282000000,   1.52000,
,,,-00.001281000000,   1.60000,
,,,-00.001280000000,   1.44000,
,,,-00.001279000000,   1.52000,
,,,-00.001278000000,   1.52000,
,,,-00.001277000000,   1.68000,
,,,-00.001276000000,   1.68000,
,,,-00.001275000000,   1.68000,
,,,-00.001274000000,   1.60000,
,,,-00.001273000000,   1.52000,
,,,-00.001272000000,   1.60000,
,,,-00.001271000000,   1.52000,
,,,-00.001270000000,   1.60000,
,,,-00.001269000000,   1.52000,
,,,-00.001268000000,   1.68000,
,,,-00.001267000000,   1.52000,
,,,-00.001266000000,   1.60000,
,,,-00.001265000000,   1.60000,
,,,-00.001264000000,   1.52000,
,,,-00.001263000000,   1.60000,
,,,-00.001262000000,   1.52000,
,,,-00.001261000000,   1.60000,
,,,-00.001260000000,   1.52000,
,,,-00.001259000000,   1.52000,
,,,-00.001258000000,   1.52000,
,,,-00.001257000000,   1.60000,
,,,-00.001256000000,   1.60000,
,,,-00.001255000000,   1.52000,
,,,-00.001254000000,   1.60000,
,,,-00.001253000000,   1.52000,
,,,-00.001252000000,   1.52000,
,,,-00.001251000000,   1.52000,
,,,-00.001250000000,   1.60000,
,,,-00.001249000000,   1.52000,
,,,-00.001248000000,   1.60000,
,,,-00.001247000000,   1.60000,
,,,-00.001246000000,   1.60000,
,,,-00.001245000000,   1.60000,
,,,-00.001244000000,   1.44000,
,,,-00.001243000000,   1.60000,
,,,-00.001242000000,   1.52000,
,,,-00.001241000000,   1.60000,
,,,-00.001240000000,   1.52000,
,,,-00.001239000000,   1.60000,
,,,-00.001238000000,   1.52000,
,,,-00.001237000000,   1.52000,
,,,-00.001236000000,   1.60000,
,,,-00.001235000000,   1.52000,
,,,-00.001234000000,   1.60000,
,,,-00.001233000000,   1.52000,
,,,-00.001232000000,   1.52000,
,,,-00.001231000000,   1.52000,
,,,-00.001230000000,   1.60000,
,,,-00.001229000000,   1.52000,
,,,-00.001228000000,   1.60000,
,,,-00.001227000000,   1.60000,
,,,-00.001226000000,   1.52000,
,,,-00.001225000000,   1.52000,
,,,-00.001224000000,   1.44000,
,,,-00.001223000000,   1.60000,
,,,-00.001222000000,   1.52000,
,,,-00.001221000000,   1.60000,
,,,-00.001220000000,   1.52000,
,,,-00.001219000000,   1.60000,
,,,-00.001218000000,   1.60000,
,,,-00.001217000000,   1.44000,
,,,-00.001216000000,   1.68000,
,,,-00.001215000000,   1.52000,
,,,-00.001214000000,   1.68000,
,,,-00.001213000000,   1.44000,
,,,-00.001212000000,   1.52000,
,,,-00.001211000000,   1.52000,
,,,-00.001210000000,   1.60000,
,,,-00.001209000000,   1.60000,
,,,-00.001208000000,   1.60000,
,,,-00.001207000000,   1.60000,
,,,-00.001206000000,   1.52000,
,,,-00.001205000000,   1.52000,
,,,-00.001204000000,   1.60000,
,,,-00.001203000000,   1.60000,
,,,-00.001202000000,   1.52000,
,,,-00.001201000000,   1.60000,
,,,-00.001200000000,   1.60000,
,,,-00.001199000000,   1.60000,
,,,-00.001198000000,   1.52000,
,,,-00.001197000000,   1.44000,
,,,-00.001196000000,   1.68000,
,,,-00.001195000000,   1.52000,
,,,-00.001194000000,   1.60000,
,,,-00.001193000000,   1.60000,
,,,-00.001192000000,   1.60000,
,,,-00.001191000000,   1.52000,
,,,-00.001190000000,   1.44000,
,,,-00.001189000000,   1.60000,
,,,-00.001188000000,   1.52000,
,,,-00.001187000000,   1.60000,
,,,-00.001186000000,   1.52000,
,,,-00.001185000000,   1.60000,
,,,-00.001184000000,   1.52000,
,,,-00.001183000000,   1.60000,
,,,-00.001182000000,   1.52000,
,,,-00.001181000000,   1.60000,
,,,-00.001180000000,   1.60000,
,,,-00.001179000000,   1.52000,
,,,-00.001178000000,   1.52000,
,,,-00.001177000000,   1.52000,
,,,-00.001176000000,   1.60000,
,,,-00.001175000000,   1.52000,
,,,-00.001174000000,   1.60000,
,,,-00.001173000000,   1.52000,
,,,-00.001172000000,   1.60000,
,,,-00.001171000000,   1.60000,
,,,-00.001170000000,   1.60000,
,,,-00.001169000000,   1.68000,
,,,-00.001168000000,   1.60000,
,,,-00.001167000000,   1.52000,
,,,-00.001166000000,   1.52000,
,,,-00.001165000000,   1.52000,
,,,-00.001164000000,   1.52000,
,,,-00.001163000000,   1.52000,
,,,-00.001162000000,   1.68000,
,,,-00.001161000000,   1.60000,
,,,-00.001160000000,   1.52000,
,,,-00.001159000000,   1.44000,
,,,-00.001158000000,   1.60000,
,,,-00.001157000000,   1.60000,
,,,-00.001156000000,   1.60000,
,,,-00.001155000000,   1.60000,
,,,-00.001154000000,   1.68000,
,,,-00.001153000000,   1.52000,
,,,-00.001152000000,   1.52000,
,,,-00.001151000000,   1.60000,
,,,-00.001150000000,   1.52000,
,,,-00.001149000000,   1.68000,
,,,-00.001148000000,   1.52000,
,,,-00.001147000000,   1.68000,
,,,-00.001146000000,   1.52000,
,,,-00.001145000000,   1.60000,
,,,-00.001144000000,   1.52000,
,,,-00.001143000000,   1.60000,
,,,-00.001142000000,   1.60000,
,,,-00.001141000000,   1.52000,
,,,-00.001140000000,   1.52000,
,,,-00.001139000000,   1.52000,
,,,-00.001138000000,   1.60000,
,,,-00.001137000000,   1.52000,
,,,-00.001136000000,   1.52000,
,,,-00.001135000000,   1.60000,
,,,-00.001134000000,   1.60000,
,,,-00.001133000000,   1.60000,
,,,-00.001132000000,   1.52000,
,,,-00.001131000000,   1.60000,
,,,-00.001130000000,   1.52000,
,,,-00.001129000000,   1.52000,
,,,-00.001128000000,   1.36000,
,,,-00.001127000000,   1.60000,
,,,-00.001126000000,   1.60000,
,,,-00.001125000000,   1.52000,
,,,-00.001124000000,   1.52000,
,,,-00.001123000000,   1.52000,
,,,-00.001122000000,   1.60000,
,,,-00.001121000000,   1.44000,
,,,-00.001120000000,   1.68000,
,,,-00.001119000000,   1.60000,
,,,-00.001118000000,   1.60000,
,,,-00.001117000000,   1.52000,
,,,-00.001116000000,   1.60000,
,,,-00.001115000000,   1.52000,
,,,-00.001114000000,   1.52000,
,,,-00.001113000000,   1.52000,
,,,-00.001112000000,   1.60000,
,,,-00.001111000000,   1.60000,
,,,-00.001110000000,   1.52000,
,,,-00.001109000000,   1.68000,
,,,-00.001108000000,   1.60000,
,,,-00.001107000000,   1.60000,
,,,-00.001106000000,   1.52000,
,,,-00.001105000000,   1.52000,
,,,-00.001104000000,   1.60000,
,,,-00.001103000000,   1.52000,
,,,-00.001102000000,   1.60000,
,,,-00.001101000000,   1.52000,
,,,-00.001100000000,   1.52000,
,,,-00.001099000000,   1.52000,
,,,-00.001098000000,   1.52000,
,,,-00.001097000000,   1.52000,
,,,-00.001096000000,   1.60000,
,,,-00.001095000000,   1.68000,
,,,-00.001094000000,   1.60000,
,,,-00.001093000000,   1.60000,
,,,-00.001092000000,   1.44000,
,,,-00.001091000000,   1.44000,
,,,-00.001090000000,   1.52000,
,,,-00.001089000000,   1.60000,
,,,-00.001088000000,   1.52000,
,,,-00.001087000000,   1.52000,
,,,-00.001086000000,   1.60000,
,,,-00.001085000000,   1.52000,
,,,-00.001084000000,   1.52000,
,,,-00.001083000000,   1.52000,
,,,-00.001082000000,   1.68000,
,,,-00.001081000000,   1.60000,
,,,-00.001080000000,   1.60000,
,,,-00.001079000000,   1.44000,
,,,-00.001078000000,   1.52000,
,,,-00.001077000000,   1.60000,
,,,-00.001076000000,   1.52000,
,,,-00.001075000000,   1.60000,
,,,-00.001074000000,   1.52000,
,,,-00.001073000000,   1.60000,
,,,-00.001072000000,   1.60000,
,,,-00.001071000000,   1.60000,
,,,-00.001070000000,   1.60000,
,,,-00.001069000000,   1.52000,
,,,-00.001068000000,   1.52000,
,,,-00.001067000000,   1.52000,
,,,-00.001066000000,   1.52000,
,,,-00.001065000000,   1.52000,
,,,-00.001064000000,   1.52000,
,,,-00.001063000000,   1.52000,
,,,-00.001062000000,   1.68000,
,,,-00.001061000000,   1.60000,
,,,-00.001060000000,   1.52000,
,,,-00.001059000000,   1.52000,
,,,-00.001058000000,   1.60000,
,,,-00.001057000000,   1.52000,
,,,-00.001056000000,   1.52000,
,,,-00.001055000000,   1.60000,
,,,-00.001054000000,   1.52000,
,,,-00.001053000000,   1.60000,
,,,-00.001052000000,   1.44000,
,,,-00.001051000000,   1.52000,
,,,-00.001050000000,   1.52000,
,,,-00.001049000000,   1.52000,
,,,-00.001048000000,   1.60000,
,,,-00.001047000000,   1.60000,
,,,-00.001046000000,   1.68000,
,,,-00.001045000000,   1.52000,
,,,-00.001044000000,   1.52000,
,,,-00.001043000000,   1.52000,
,,,-00.001042000000,   1.60000,
,,,-00.001041000000,   1.52000,
,,,-00.001040000000,   1.68000,
,,,-00.001039000000,   1.60000,
,,,-00.001038000000,   1.60000,
,,,-00.001037000000,   1.52000,
,,,-00.001036000000,   1.52000,
,,,-00.001035000000,   1.60000,
,,,-00.001034000000,   1.60000,
,,,-00.001033000000,   1.60000,
,,,-00.001032000000,   1.60000,
,,,-00.001031000000,   1.52000,
,,,-00.001030000000,   1.60000,
,,,-00.001029000000,   1.60000,
,,,-00.001028000000,   1.68000,
,,,-00.001027000000,   1.52000,
,,,-00.001026000000,   1.60000,
,,,-00.001025000000,   1.52000,
,,,-00.001024000000,   1.60000,
,,,-00.001023000000,   1.60000,
,,,-00.001022000000,   1.60000,
,,,-00.001021000000,   1.60000,
,,,-00.001020000000,   1.52000,
,,,-00.001019000000,   1.52000,
,,,-00.001018000000,   1.52000,
,,,-00.001017000000,   1.52000,
,,,-00.001016000000,   1.52000,
,,,-00.001015000000,   1.68000,
,,,-00.001014000000,   1.52000,
,,,-00.001013000000,   1.60000,
,,,-00.001012000000,   1.52000,
,,,-00.001011000000,   1.60000,
,,,-00.001010000000,   1.52000,
,,,-00.001009000000,   1.52000,
,,,-00.001008000000,   1.68000,
,,,-00.001007000000,   1.52000,
,,,-00.001006000000,   1.52000,
,,,-00.001005000000,   1.52000,
,,,-00.001004000000,   1.52000,
,,,-00.001003000000,   1.60000,
,,,-00.001002000000,   1.52000,
,,,-00.001001000000,   1.60000,
,,,-00.001000000000,   1.52000,
,,,-00.000999000000,   1.60000,
,,,-00.000998000000,   1.52000,
,,,-00.000997000000,   1.60000,
,,,-00.000996000000,   1.60000,
,,,-00.000995000000,   1.60000,
,,,-00.000994000000,   1.44000,
,,,-00.000993000000,   1.60000,
,,,-00.000992000000,   1.52000,
,,,-00.000991000000,   1.52000,
,,,-00.000990000000,   1.52000,
,,,-00.000989000000,   1.52000,
,,,-00.000988000000,   1.68000,
,,,-00.000987000000,   1.52000,
,,,-00.000986000000,   1.68000,
,,,-00.000985000000,   1.52000,
,,,-00.000984000000,   1.60000,
,,,-00.000983000000,   1.52000,
,,,-00.000982000000,   1.60000,
,,,-00.000981000000,   0.16000,
,,,-00.000980000000,   0.88000,
,,,-00.000979000000,   1.12000,
,,,-00.000978000000,   1.12000,
,,,-00.000977000000,   0.96000,
,,,-00.000976000000,   0.80000,
,,,-00.000975000000,   0.72000,
,,,-00.000974000000,   0.64000,
,,,-00.000973000000,   0.64000,
,,,-00.000972000000,   0.48000,
,,,-00.000971000000,   0.40000,
,,,-00.000970000000,   0.40000,
,,,-00.000969000000,   0.32000,
,,,-00.000968000000,   0.40000,
,,,-00.000967000000,   0.32000,
,,,-00.000966000000,   0.40000,
,,,-00.000965000000,   0.24000,
,,,-00.000964000000,   0.32000,
,,,-00.000963000000,   0.32000,
,,,-00.000962000000,   0.24000,
,,,-00.000961000000,   0.40000,
,,,-00.000960000000,   0.16000,
,,,-00.000959000000,   0.16000,
,,,-00.000958000000,   0.08000,
,,,-00.000957000000,   0.00000,
,,,-00.000956000000,  -0.08000,
,,,-00.000955000000,   0.00000,
,,,-00.000954000000,  -0.16000,
,,,-00.000953000000,  -0.24000,
,,,-00.000952000000,  -0.40000,
,,,-00.000951000000,  -0.48000,
,,,-00.000950000000,  -0.56000,
,,,-00.000949000000,  -0.64000,
,,,-00.000948000000,  -0.64000,
,,,-00.000947000000,  -0.88000,
,,,-00.000946000000,  -0.80000,
,,,-00.000945000000,  -0.96000,
,,,-00.000944000000,  -0.96000,
,,,-00.000943000000,  -0.96000,
,,,-00.000942000000,  -0.96000,
,,,-00.000941000000,  -1.04000,
,,,-00.000940000000,  -1.12000,
,,,-00.000939000000,  -0.96000,
,,,-00.000938000000,  -1.04000,
,,,-00.000937000000,  -1.04000,
,,,-00.000936000000,  -0.96000,
,,,-00.000935000000,  -0.96000,
,,,-00.000934000000,  -0.88000,
,,,-00.000933000000,  -1.12000,
,,,-00.000932000000,  -0.96000,
,,,-00.000931000000,  -0.96000,
,,,-00.000930000000,  -0.96000,
,,,-00.000929000000,  -0.96000,
,,,-00.000928000000,  -0.96000,
,,,-00.000927000000,  -1.04000,
,,,-00.000926000000,  -1.04000,
,,,-00.000925000000,  -1.12000,
,,,-00.000924000000,  -0.96000,
,,,-00.000923000000,  -1.04000,
,,,-00.000922000000,  -1.28000,
,,,-00.000921000000,  -1.12000,
,,,-00.000920000000,  -1.28000,
,,,-00.000919000000,  -1.20000,
,,,-00.000918000000,  -1.36000,
,,,-00.000917000000,  -1.28000,
,,,-00.000916000000,  -1.36000,
,,,-00.000915000000,  -1.44000,
,,,-00.000914000000,  -1.28000,
,,,-00.000913000000,  -1.44000,
,,,-00.000912000000,  -1.44000,
,,,-00.000911000000,  -1.44000,
,,,-00.000910000000,  -1.44000,
,,,-00.000909000000,  -1.44000,
,,,-00.000908000000,  -1.44000,
,,,-00.000907000000,  -1.44000,
