practice4/Sobreamortiguado/IL/F0001CH2.CSV

Record Length,2.500000e+03,,  -0.020800000000,   0.21600,
Sample Interval,1.000000e-05,,  -0.020790000000,   0.22400,
Trigger Point,2.080000000000e+03,,  -0.020780000000,   0.21600,
,,,  -0.020770000000,   0.22400,
,,,  -0.020760000000,   0.21600,
,,,  -0.020750000000,   0.21600,
Source,CH2,,  -0.020740000000,   0.22400,
Vertical Units,V,,  -0.020730000000,   0.21600,
Vertical Scale,2.000000e-01,,  -0.020720000000,   0.21600,
Vertical Offset,0.000000e+00,,  -0.020710000000,   0.21600,
Horizontal Units,s,,  -0.020700000000,   0.22400,
Horizontal Scale,2.500000e-03,,  -0.020690000000,   0.22400,
Pt Fmt,Y,,  -0.020680000000,   0.20800,
Yzero,0.000000e+00,,  -0.020670000000,   0.21600,
Probe Atten,1.000000e+00,,  -0.020660000000,   0.21600,
Model Number,TDS1012C-EDU,,  -0.020650000000,   0.21600,
Serial Number,C012238,,  -0.020640000000,   0.21600,
Firmware Version,FV:v25.07,,  -0.020630000000,   0.22400,
,,,-00.020620000000,   0.22400,
,,,-00.020610000000,   0.21600,
,,,-00.020600000000,   0.22400,
,,,-00.020590000000,   0.21600,
,,,-00.020580000000,   0.22400,
,,,-00.020570000000,   0.21600,
,,,-00.020560000000,   0.21600,
,,,-00.020550000000,   0.22400,
,,,-00.020540000000,   0.22400,
,,,-00.020530000000,   0.22400,
,,,-00.020520000000,   0.21600,
,,,-00.020510000000,   0.21600,
,,,-00.020500000000,   0.21600,
,,,-00.020490000000,   0.22400,
,,,-00.020480000000,   0.21600,
,,,-00.020470000000,   0.21600,
,,,-00.020460000000,   0.21600,
,,,-00.020450000000,   0.22400,
,,,-00.020440000000,   0.22400,
,,,-00.020430000000,   0.21600,
,,,-00.020420000000,   0.22400,
,,,-00.020410000000,   0.21600,
,,,-00.020400000000,   0.21600,
,,,-00.020390000000,   0.21600,
,,,-00.020380000000,   0.21600,
,,,-00.020370000000,   0.21600,
,,,-00.020360000000,   0.22400,
,,,-00.020350000000,   0.22400,
,,,-00.020340000000,   0.22400,
,,,-00.020330000000,   0.21600,
,,,-00.020320000000,   0.22400,
,,,-00.020310000000,   0.21600,
,,,-00.020300000000,   0.20000,
,,,-00.020290000000,   0.22400,
,,,-00.020280000000,   0.22400,
,,,-00.020270000000,   0.22400,
,,,-00.020260000000,   0.21600,
,,,-00.020250000000,   0.22400,
,,,-00.020240000000,   0.22400,
,,,-00.020230000000,   0.21600,
,,,-00.020220000000,   0.21600,
,,,-00.020210000000,   0.21600,
,,,-00.020200000000,   0.22400,
,,,-00.020190000000,   0.22400,
,,,-00.020180000000,   0.22400,
,,,-00.020170000000,   0.21600,
,,,-00.020160000000,   0.21600,
,,,-00.020150000000,   0.21600,
,,,-00.020140000000,   0.21600,
,,,-00.020130000000,   0.22400,
,,,-00.020120000000,   0.22400,
,,,-00.020110000000,   0.21600,
,,,-00.020100000000,   0.22400,
,,,-00.020090000000,   0.21600,
,,,-00.020080000000,   0.21600,
,,,-00.020070000000,   0.22400,
,,,-00.020060000000,   0.21600,
,,,-00.020050000000,   0.22400,
,,,-00.020040000000,   0.22400,
,,,-00.020030000000,   0.22400,
,,,-00.020020000000,   0.22400,
,,,-00.020010000000,   0.21600,
,,,-00.020000000000,   0.22400,
,,,-00.019990000000,   0.22400,
,,,-00.019980000000,   0.20800,
,,,-00.019970000000,   0.21600,
,,,-00.019960000000,   0.21600,
,,,-00.019950000000,   0.22400,
,,,-00.019940000000,   0.22400,
,,,-00.019930000000,   0.22400,
,,,-00.019920000000,   0.21600,
,,,-00.019910000000,   0.21600,
,,,-00.019900000000,   0.22400,
,,,-00.019890000000,   0.21600,
,,,-00.019880000000,   0.21600,
,,,-00.019870000000,   0.21600,
,,,-00.019860000000,   0.20800,
,,,-00.019850000000,   0.21600,
,,,-00.019840000000,   0.22400,
,,,-00.019830000000,   0.21600,
,,,-00.019820000000,   0.22400,
,,,-00.019810000000,   0.22400,
,,,-00.019800000000,   0.22400,
,,,-00.019790000000,   0.21600,
,,,-00.019780000000,   0.21600,
,,,-00.019770000000,   0.22400,
,,,-00.019760000000,   0.22400,
,,,-00.019750000000,   0.21600,
,,,-00.019740000000,   0.22400,
,,,-00.019730000000,   0.22400,
,,,-00.019720000000,   0.21600,
,,,-00.019710000000,   0.22400,
,,,-00.019700000000,   0.21600,
,,,-00.019690000000,   0.22400,
,,,-00.019680000000,   0.22400,
,,,-00.019670000000,   0.21600,
,,,-00.019660000000,   0.22400,
,,,-00.019650000000,   0.22400,
,,,-00.019640000000,   0.22400,
,,,-00.019630000000,   0.21600,
,,,-00.019620000000,   0.21600,
,,,-00.019610000000,   0.22400,
,,,-00.019600000000,   0.22400,
,,,-00.019590000000,   0.21600,
,,,-00.019580000000,   0.21600,
,,,-00.019570000000,   0.21600,
,,,-00.019560000000,   0.22400,
,,,-00.019550000000,   0.22400,
,,,-00.019540000000,   0.22400,
,,,-00.019530000000,   0.22400,
,,,-00.019520000000,   0.22400,
,,,-00.019510000000,   0.22400,
,,,-00.019500000000,   0.22400,
,,,-00.019490000000,   0.21600,
,,,-00.019480000000,   0.21600,
,,,-00.019470000000,   0.21600,
,,,-00.019460000000,   0.22400,
,,,-00.019450000000,   0.22400,
,,,-00.019440000000,   0.21600,
,,,-00.019430000000,   0.21600,
,,,-00.019420000000,   0.21600,
,,,-00.019410000000,   0.21600,
,,,-00.019400000000,   0.21600,
,,,-00.019390000000,   0.21600,
,,,-00.019380000000,   0.21600,
,,,-00.019370000000,   0.20800,
,,,-00.019360000000,   0.21600,
,,,-00.019350000000,   0.22400,
,,,-00.019340000000,   0.22400,
,,,-00.019330000000,   0.21600,
,,,-00.019320000000,   0.21600,
,,,-00.019310000000,   0.22400,
,,,-00.019300000000,   0.22400,
,,,-00.019290000000,   0.21600,
,,,-00.019280000000,   0.22400,
,,,-00.019270000000,   0.21600,
,,,-00.019260000000,   0.22400,
,,,-00.019250000000,   0.22400,
,,,-00.019240000000,   0.21600,
,,,-00.019230000000,   0.21600,
,,,-00.019220000000,   0.22400,
,,,-00.019210000000,   0.22400,
,,,-00.019200000000,   0.22400,
,,,-00.019190000000,   0.21600,
,,,-00.019180000000,   0.21600,
,,,-00.019170000000,   0.21600,
,,,-00.019160000000,   0.21600,
,,,-00.019150000000,   0.21600,
,,,-00.019140000000,   0.21600,
,,,-00.019130000000,   0.21600,
,,,-00.019120000000,   0.22400,
,,,-00.019110000000,   0.21600,
,,,-00.019100000000,   0.21600,
,,,-00.019090000000,   0.21600,
,,,-00.019080000000,   0.21600,
,,,-00.019070000000,   0.21600,
,,,-00.019060000000,   0.21600,
,,,-00.019050000000,   0.22400,
,,,-00.019040000000,   0.21600,
,,,-00.019030000000,   0.21600,
,,,-00.019020000000,   0.21600,
,,,-00.019010000000,   0.22400,
,,,-00.019000000000,   0.21600,
,,,-00.018990000000,   0.22400,
,,,-00.018980000000,   0.21600,
,,,-00.018970000000,   0.21600,
,,,-00.018960000000,   0.21600,
,,,-00.018950000000,   0.22400,
,,,-00.018940000000,   0.21600,
,,,-00.018930000000,   0.22400,
,,,-00.018920000000,   0.22400,
,,,-00.018910000000,   0.22400,
,,,-00.018900000000,   0.21600,
,,,-00.018890000000,   0.21600,
,,,-00.018880000000,   0.21600,
,,,-00.018870000000,   0.21600,
,,,-00.018860000000,   0.21600,
,,,-00.018850000000,   0.21600,
,,,-00.018840000000,   0.21600,
,,,-00.018830000000,   0.22400,
,,,-00.018820000000,   0.22400,
,,,-00.018810000000,   0.20800,
,,,-00.018800000000,   0.21600,
,,,-00.018790000000,   0.21600,
,,,-00.018780000000,   0.21600,
,,,-00.018770000000,   0.21600,
,,,-00.018760000000,   0.21600,
,,,-00.018750000000,   0.22400,
,,,-00.018740000000,   0.22400,
,,,-00.018730000000,   0.21600,
,,,-00.018720000000,   0.21600,
,,,-00.018710000000,   0.22400,
,,,-00.018700000000,   0.22400,
,,,-00.018690000000,   0.22400,
,,,-00.018680000000,   0.21600,
,,,-00.018670000000,   0.21600,
,,,-00.018660000000,   0.22400,
,,,-00.018650000000,   0.21600,
,,,-00.018640000000,   0.22400,
,,,-00.018630000000,   0.22400,
,,,-00.018620000000,   0.21600,
,,,-00.018610000000,   0.22400,
,,,-00.018600000000,   0.22400,
,,,-00.018590000000,   0.22400,
,,,-00.018580000000,   0.21600,
,,,-00.018570000000,   0.21600,
,,,-00.018560000000,   0.21600,
,,,-00.018550000000,   0.22400,
,,,-00.018540000000,   0.22400,
,,,-00.018530000000,   0.22400,
,,,-00.018520000000,   0.21600,
,,,-00.018510000000,   0.22400,
,,,-00.018500000000,   0.22400,
,,,-00.018490000000,   0.21600,
,,,-00.018480000000,   0.21600,
,,,-00.018470000000,   0.21600,
,,,-00.018460000000,   0.21600,
,,,-00.018450000000,   0.22400,
,,,-00.018440000000,   0.22400,
,,,-00.018430000000,   0.21600,
,,,-00.018420000000,   0.21600,
,,,-00.018410000000,   0.22400,
,,,-00.018400000000,   0.22400,
,,,-00.018390000000,   0.22400,
,,,-00.018380000000,   0.21600,
,,,-00.018370000000,   0.22400,
,,,-00.018360000000,   0.22400,
,,,-00.018350000000,   0.22400,
,,,-00.018340000000,   0.21600,
,,,-00.018330000000,   0.22400,
,,,-00.018320000000,   0.21600,
,,,-00.018310000000,   0.21600,
,,,-00.018300000000,   0.22400,
,,,-00.018290000000,   0.22400,
,,,-00.018280000000,   0.22400,
,,,-00.018270000000,   0.21600,
,,,-00.018260000000,   0.21600,
,,,-00.018250000000,   0.21600,
,,,-00.018240000000,   0.21600,
,,,-00.018230000000,   0.22400,
,,,-00.018220000000,   0.20800,
,,,-00.018210000000,   0.21600,
,,,-00.018200000000,   0.22400,
,,,-00.018190000000,   0.21600,
,,,-00.018180000000,   0.21600,
,,,-00.018170000000,   0.22400,
,,,-00.018160000000,   0.21600,
,,,-00.018150000000,   0.22400,
,,,-00.018140000000,   0.22400,
,,,-00.018130000000,   0.20800,
,,,-00.018120000000,   0.21600,
,,,-00.018110000000,   0.22400,
,,,-00.018100000000,   0.22400,
,,,-00.018090000000,   0.22400,
,,,-00.018080000000,   0.21600,
,,,-00.018070000000,   0.22400,
,,,-00.018060000000,   0.21600,
,,,-00.018050000000,   0.21600,
,,,-00.018040000000,   0.22400,
,,,-00.018030000000,   0.21600,
,,,-00.018020000000,   0.22400,
,,,-00.018010000000,   0.21600,
,,,-00.018000000000,   0.21600,
,,,-00.017990000000,   0.21600,
,,,-00.017980000000,   0.21600,
,,,-00.017970000000,   0.21600,
,,,-00.017960000000,   0.21600,
,,,-00.017950000000,   0.22400,
,,,-00.017940000000,   0.22400,
,,,-00.017930000000,   0.22400,
,,,-00.017920000000,   0.21600,
,,,-00.017910000000,   0.22400,
,,,-00.017900000000,   0.22400,
,,,-00.017890000000,   0.21600,
,,,-00.017880000000,   0.21600,
,,,-00.017870000000,   0.22400,
,,,-00.017860000000,   0.21600,
,,,-00.017850000000,   0.22400,
,,,-00.017840000000,   0.22400,
,,,-00.017830000000,   0.22400,
,,,-00.017820000000,   0.21600,
,,,-00.017810000000,   0.22400,
,,,-00.017800000000,   0.22400,
,,,-00.017790000000,   0.22400,
,,,-00.017780000000,   0.22400,
,,,-00.017770000000,   0.22400,
,,,-00.017760000000,   0.22400,
,,,-00.017750000000,   0.22400,
,,,-00.017740000000,   0.22400,
,,,-00.017730000000,   0.21600,
,,,-00.017720000000,   0.22400,
,,,-00.017710000000,   0.22400,
,,,-00.017700000000,   0.22400,
,,,-00.017690000000,   0.21600,
,,,-00.017680000000,   0.22400,
,,,-00.017670000000,   0.21600,
,,,-00.017660000000,   0.22400,
,,,-00.017650000000,   0.21600,
,,,-00.017640000000,   0.21600,
,,,-00.017630000000,   0.21600,
,,,-00.017620000000,   0.22400,
,,,-00.017610000000,   0.21600,
,,,-00.017600000000,   0.22400,
,,,-00.017590000000,   0.21600,
,,,-00.017580000000,   0.22400,
,,,-00.017570000000,   0.21600,
,,,-00.017560000000,   0.22400,
,,,-00.017550000000,   0.21600,
,,,-00.017540000000,   0.21600,
,,,-00.017530000000,   0.22400,
,,,-00.017520000000,   0.21600,
,,,-00.017510000000,   0.21600,
,,,-00.017500000000,   0.22400,
,,,-00.017490000000,   0.22400,
,,,-00.017480000000,   0.22400,
,,,-00.017470000000,   0.22400,
,,,-00.017460000000,   0.22400,
,,,-00.017450000000,   0.21600,
,,,-00.017440000000,   0.21600,
,,,-00.017430000000,   0.21600,
,,,-00.017420000000,   0.21600,
,,,-00.017410000000,   0.21600,
,,,-00.017400000000,   0.21600,
,,,-00.017390000000,   0.21600,
,,,-00.017380000000,   0.21600,
,,,-00.017370000000,   0.22400,
,,,-00.017360000000,   0.22400,
,,,-00.017350000000,   0.21600,
,,,-00.017340000000,   0.22400,
,,,-00.017330000000,   0.21600,
,,,-00.017320000000,   0.21600,
,,,-00.017310000000,   0.22400,
,,,-00.017300000000,   0.21600,
,,,-00.017290000000,   0.22400,
,,,-00.017280000000,   0.22400,
,,,-00.017270000000,   0.21600,
,,,-00.017260000000,   0.21600,
,,,-00.017250000000,   0.21600,
,,,-00.017240000000,   0.22400,
,,,-00.017230000000,   0.22400,
,,,-00.017220000000,   0.22400,
,,,-00.017210000000,   0.21600,
,,,-00.017200000000,   0.21600,
,,,-00.017190000000,   0.21600,
,,,-00.017180000000,   0.22400,
,,,-00.017170000000,   0.21600,
,,,-00.017160000000,   0.22400,
,,,-00.017150000000,   0.21600,
,,,-00.017140000000,   0.22400,
,,,-00.017130000000,   0.22400,
,,,-00.017120000000,   0.21600,
,,,-00.017110000000,   0.22400,
,,,-00.017100000000,   0.21600,
,,,-00.017090000000,   0.22400,
,,,-00.017080000000,   0.22400,
,,,-00.017070000000,   0.21600,
,,,-00.017060000000,   0.22400,
,,,-00.017050000000,   0.21600,
,,,-00.017040000000,   0.21600,
,,,-00.017030000000,   0.21600,
,,,-00.017020000000,   0.22400,
,,,-00.017010000000,   0.22400,
,,,-00.017000000000,   0.22400,
,,,-00.016990000000,   0.22400,
,,,-00.016980000000,   0.21600,
,,,-00.016970000000,   0.21600,
,,,-00.016960000000,   0.21600,
,,,-00.016950000000,   0.22400,
,,,-00.016940000000,   0.21600,
,,,-00.016930000000,   0.21600,
,,,-00.016920000000,   0.21600,
,,,-00.016910000000,   0.22400,
,,,-00.016900000000,   0.22400,
,,,-00.016890000000,   0.21600,
,,,-00.016880000000,   0.22400,
,,,-00.016870000000,   0.21600,
,,,-00.016860000000,   0.21600,
,,,-00.016850000000,   0.22400,
,,,-00.016840000000,   0.21600,
,,,-00.016830000000,   0.22400,
,,,-00.016820000000,   0.21600,
,,,-00.016810000000,   0.09600,
,,,-00.016800000000,   0.04000,
,,,-00.016790000000,  -0.03200,
,,,-00.016780000000,  -0.14400,
,,,-00.016770000000,  -0.19200,
,,,-00.016760000000,  -0.20800,
,,,-00.016750000000,  -0.29600,
,,,-00.016740000000,  -0.32000,
,,,-00.016730000000,  -0.32800,
,,,-00.016720000000,  -0.36800,
,,,-00.016710000000,  -0.40800,
,,,-00.016700000000,  -0.39200,
,,,-00.016690000000,  -0.41600,
,,,-00.016680000000,  -0.44000,
,,,-00.016670000000,  -0.44000,
,,,-00.016660000000,  -0.44800,
,,,-00.016650000000,  -0.46400,
,,,-00.016640000000,  -0.44800,
,,,-00.016630000000,  -0.45600,
,,,-00.016620000000,  -0.47200,
,,,-00.016610000000,  -0.46400,
,,,-00.016600000000,  -0.45600,
,,,-00.016590000000,  -0.46400,
,,,-00.016580000000,  -0.46400,
,,,-00.016570000000,  -0.44800,
,,,-00.016560000000,  -0.45600,
,,,-00.016550000000,  -0.45600,
,,,-00.016540000000,  -0.44000,
,,,-00.016530000000,  -0.44800,
,,,-00.016520000000,  -0.44800,
,,,-00.016510000000,  -0.43200,
,,,-00.016500000000,  -0.43200,
,,,-00.016490000000,  -0.43200,
,,,-00.016480000000,  -0.43200,
,,,-00.016470000000,  -0.42400,
,,,-00.016460000000,  -0.41600,
,,,-00.016450000000,  -0.40000,
,,,-00.016440000000,  -0.41600,
,,,-00.016430000000,  -0.41600,
,,,-00.016420000000,  -0.39200,
,,,-00.016410000000,  -0.39200,
,,,-00.016400000000,  -0.39200,
,,,-00.016390000000,  -0.38400,
,,,-00.016380000000,  -0.37600,
,,,-00.016370000000,  -0.38400,
,,,-00.016360000000,  -0.36800,
,,,-00.016350000000,  -0.37600,
,,,-00.016340000000,  -0.37600,
,,,-00.016330000000,  -0.36800,
,,,-00.016320000000,  -0.36000,
,,,-00.016310000000,  -0.36800,
,,,-00.016300000000,  -0.36000,
,,,-00.016290000000,  -0.35200,
,,,-00.016280000000,  -0.35200,
,,,-00.016270000000,  -0.35200,
,,,-00.016260000000,  -0.33600,
,,,-00.016250000000,  -0.35200,
,,,-00.016240000000,  -0.32800,
,,,-00.016230000000,  -0.32800,
,,,-00.016220000000,  -0.34400,
,,,-00.016210000000,  -0.32800,
,,,-00.016200000000,  -0.32000,
,,,-00.016190000000,  -0.32000,
,,,-00.016180000000,  -0.32800,
,,,-00.016170000000,  -0.32000,
,,,-00.016160000000,  -0.32000,
,,,-00.016150000000,  -0.31200,
,,,-00.016140000000,  -0.31200,
,,,-00.016130000000,  -0.31200,
,,,-00.016120000000,  -0.30400,
,,,-00.016110000000,  -0.30400,
,,,-00.016100000000,  -0.30400,
,,,-00.016090000000,  -0.30400,
,,,-00.016080000000,  -0.29600,
,,,-00.016070000000,  -0.30400,
,,,-00.016060000000,  -0.29600,
,,,-00.016050000000,  -0.29600,
,,,-00.016040000000,  -0.28800,
,,,-00.016030000000,  -0.28800,
,,,-00.016020000000,  -0.28800,
,,,-00.016010000000,  -0.28800,
,,,-00.016000000000,  -0.28800,
,,,-00.015990000000,  -0.28800,
,,,-00.015980000000,  -0.28000,
,,,-00.015970000000,  -0.28000,
,,,-00.015960000000,  -0.28000,
,,,-00.015950000000,  -0.28000,
,,,-00.015940000000,  -0.28000,
,,,-00.015930000000,  -0.28000,
,,,-00.015920000000,  -0.27200,
,,,-00.015910000000,  -0.28000,
,,,-00.015900000000,  -0.27200,
,,,-00.015890000000,  -0.27200,
,,,-00.015880000000,  -0.27200,
,,,-00.015870000000,  -0.27200,
,,,-00.015860000000,  -0.25600,
,,,-00.015850000000,  -0.26400,
,,,-00.015840000000,  -0.26400,
,,,-00.015830000000,  -0.26400,
,,,-00.015820000000,  -0.26400,
,,,-00.015810000000,  -0.25600,
,,,-00.015800000000,  -0.26400,
,,,-00.015790000000,  -0.26400,
,,,-00.015780000000,  -0.24800,
,,,-00.015770000000,  -0.25600,
,,,-00.015760000000,  -0.25600,
,,,-00.015750000000,  -0.24800,
,,,-00.015740000000,  -0.25600,
,,,-00.015730000000,  -0.24800,
,,,-00.015720000000,  -0.24800,
,,,-00.015710000000,  -0.24800,
,,,-00.015700000000,  -0.24800,
,,,-00.015690000000,  -0.24800,
,,,-00.015680000000,  -0.24800,
,,,-00.015670000000,  -0.24800,
,,,-00.015660000000,  -0.24800,
,,,-00.015650000000,  -0.24800,
,,,-00.015640000000,  -0.24800,
,,,-00.015630000000,  -0.24800,
,,,-00.015620000000,  -0.24000,
,,,-00.015610000000,  -0.24800,
,,,-00.015600000000,  -0.24800,
,,,-00.015590000000,  -0.24000,
,,,-00.015580000000,  -0.24000,
,,,-00.015570000000,  -0.24000,
,,,-00.015560000000,  -0.24000,
,,,-00.015550000000,  -0.24000,
,,,-00.015540000000,  -0.24000,
,,,-00.015530000000,  -0.23200,
,,,-00.015520000000,  -0.24000,
,,,-00.015510000000,  -0.24000,
,,,-00.015500000000,  -0.24000,
,,,-00.015490000000,  -0.23200,
,,,-00.015480000000,  -0.23200,
,,,-00.015470000000,  -0.24000,
,,,-00.015460000000,  -0.23200,
,,,-00.015450000000,  -0.24000,
,,,-00.015440000000,  -0.23200,
,,,-00.015430000000,  -0.24000,
,,,-00.015420000000,  -0.23200,
,,,-00.015410000000,  -0.23200,
,,,-00.015400000000,  -0.23200,
,,,-00.015390000000,  -0.23200,
,,,-00.015380000000,  -0.23200,
,,,-00.015370000000,  -0.23200,
,,,-00.015360000000,  -0.23200,
,,,-00.015350000000,  -0.23200,
,,,-00.015340000000,  -0.22400,
,,,-00.015330000000,  -0.23200,
,,,-00.015320000000,  -0.23200,
,,,-00.015310000000,  -0.23200,
,,,-00.015300000000,  -0.23200,
,,,-00.015290000000,  -0.22400,
,,,-00.015280000000,  -0.23200,
,,,-00.015270000000,  -0.23200,
,,,-00.015260000000,  -0.23200,
,,,-00.015250000000,  -0.23200,
,,,-00.015240000000,  -0.23200,
,,,-00.015230000000,  -0.22400,
,,,-00.015220000000,  -0.23200,
,,,-00.015210000000,  -0.23200,
,,,-00.015200000000,  -0.23200,
,,,-00.015190000000,  -0.23200,
,,,-00.015180000000,  -0.21600,
,,,-00.015170000000,  -0.23200,
,,,-00.015160000000,  -0.23200,
,,,-00.015150000000,  -0.23200,
,,,-00.015140000000,  -0.22400,
,,,-00.015130000000,  -0.22400,
,,,-00.015120000000,  -0.22400,
,,,-00.015110000000,  -0.23200,
,,,-00.015100000000,  -0.23200,
,,,-00.015090000000,  -0.22400,
,,,-00.015080000000,  -0.23200,
,,,-00.015070000000,  -0.23200,
,,,-00.015060000000,  -0.21600,
,,,-00.015050000000,  -0.22400,
,,,-00.015040000000,  -0.23200,
,,,-00.015030000000,  -0.22400,
,,,-00.015020000000,  -0.22400,
,,,-00.015010000000,  -0.22400,
,,,-00.015000000000,  -0.22400,
,,,-00.014990000000,  -0.22400,
,,,-00.014980000000,  -0.22400,
,,,-00.014970000000,  -0.22400,
,,,-00.014960000000,  -0.22400,
,,,-00.014950000000,  -0.22400,
,,,-00.014940000000,  -0.21600,
,,,-00.014930000000,  -0.21600,
,,,-00.014920000000,  -0.22400,
,,,-00.014910000000,  -0.22400,
,,,-00.014900000000,  -0.21600,
,,,-00.014890000000,  -0.22400,
,,,-00.014880000000,  -0.22400,
,,,-00.014870000000,  -0.22400,
,,,-00.014860000000,  -0.22400,
,,,-00.014850000000,  -0.22400,
,,,-00.014840000000,  -0.21600,
,,,-00.014830000000,  -0.22400,
,,,-00.014820000000,  -0.23200,
,,,-00.014810000000,  -0.23200,
,,,-00.014800000000,  -0.22400,
,,,-00.014790000000,  -0.21600,
,,,-00.014780000000,  -0.22400,
,,,-00.014770000000,  -0.22400,
,,,-00.014760000000,  -0.21600,
,,,-00.014750000000,  -0.21600,
,,,-00.014740000000,  -0.21600,
,,,-00.014730000000,  -0.22400,
,,,-00.014720000000,  -0.21600,
,,,-00.014710000000,  -0.22400,
,,,-00.014700000000,  -0.22400,
,,,-00.014690000000,  -0.21600,
,,,-00.014680000000,  -0.22400,
,,,-00.014670000000,  -0.21600,
