practice3/ALL0000/F0000CH1.CSV

Record Length,2.500000e+03,,  -0.001750000000,   0.08000,
Sample Interval,1.000000e-06,,  -0.001749000000,   0.08000,
Trigger Point,1.750000000000e+03,,  -0.001748000000,   0.08000,
,,,  -0.001747000000,   0.08000,
,,,  -0.001746000000,   0.08000,
,,,  -0.001745000000,   0.08000,
Source,CH1,,  -0.001744000000,   0.08000,
Vertical Units,V,,  -0.001743000000,   0.08000,
Vertical Scale,2.000000e+00,,  -0.001742000000,   0.08000,
Vertical Offset,0.000000e+00,,  -0.001741000000,   0.08000,
Horizontal Units,s,,  -0.001740000000,   0.08000,
Horizontal Scale,2.500000e-04,,  -0.001739000000,   0.08000,
Pt Fmt,Y,,  -0.001738000000,   0.08000,
Yzero,0.000000e+00,,  -0.001737000000,   0.08000,
Probe Atten,1.000000e+00,,  -0.001736000000,   0.08000,
Model Number,TDS1012C-EDU,,  -0.001735000000,   0.08000,
Serial Number,C012238,,  -0.001734000000,   0.08000,
Firmware Version,FV:v25.07,,  -0.001733000000,   0.08000,
,,,-00.001732000000,   0.08000,
,,,-00.001731000000,   0.08000,
,,,-00.001730000000,   0.08000,
,,,-00.001729000000,   0.08000,
,,,-00.001728000000,   0.08000,
,,,-00.001727000000,   0.08000,
,,,-00.001726000000,   0.08000,
,,,-00.001725000000,   0.08000,
,,,-00.001724000000,   0.08000,
,,,-00.001723000000,   0.08000,
,,,-00.001722000000,   0.08000,
,,,-00.001721000000,   0.16000,
,,,-00.001720000000,   0.08000,
,,,-00.001719000000,   0.08000,
,,,-00.001718000000,   0.08000,
,,,-00.001717000000,   0.08000,
,,,-00.001716000000,   0.08000,
,,,-00.001715000000,   0.08000,
,,,-00.001714000000,   0.08000,
,,,-00.001713000000,   0.08000,
,,,-00.001712000000,   0.08000,
,,,-00.001711000000,   0.08000,
,,,-00.001710000000,   0.08000,
,,,-00.001709000000,   0.08000,
,,,-00.001708000000,   0.08000,
,,,-00.001707000000,   0.08000,
,,,-00.001706000000,   0.08000,
,,,-00.001705000000,   0.08000,
,,,-00.001704000000,   0.08000,
,,,-00.001703000000,   0.08000,
,,,-00.001702000000,   0.08000,
,,,-00.001701000000,   0.08000,
,,,-00.001700000000,   0.08000,
,,,-00.001699000000,   0.08000,
,,,-00.001698000000,   0.08000,
,,,-00.001697000000,   0.08000,
,,,-00.001696000000,   0.08000,
,,,-00.001695000000,   0.08000,
,,,-00.001694000000,   0.08000,
,,,-00.001693000000,   0.08000,
,,,-00.001692000000,   0.08000,
,,,-00.001691000000,   0.08000,
,,,-00.001690000000,   0.08000,
,,,-00.001689000000,   0.08000,
,,,-00.001688000000,   0.08000,
,,,-00.001687000000,   0.08000,
,,,-00.001686000000,   0.08000,
,,,-00.001685000000,   0.08000,
,,,-00.001684000000,   0.08000,
,,,-00.001683000000,   0.08000,
,,,-00.001682000000,   0.08000,
,,,-00.001681000000,   0.08000,
,,,-00.001680000000,   0.08000,
,,,-00.001679000000,   0.08000,
,,,-00.001678000000,   0.08000,
,,,-00.001677000000,   0.08000,
,,,-00.001676000000,   0.08000,
,,,-00.001675000000,   0.08000,
,,,-00.001674000000,   0.08000,
,,,-00.001673000000,   0.08000,
,,,-00.001672000000,   0.08000,
,,,-00.001671000000,   0.08000,
,,,-00.001670000000,   0.08000,
,,,-00.001669000000,   0.08000,
,,,-00.001668000000,   0.08000,
,,,-00.001667000000,   0.08000,
,,,-00.001666000000,   0.08000,
,,,-00.001665000000,   0.08000,
,,,-00.001664000000,   0.08000,
,,,-00.001663000000,   0.08000,
,,,-00.001662000000,   0.08000,
,,,-00.001661000000,   0.08000,
,,,-00.001660000000,   0.08000,
,,,-00.001659000000,   0.08000,
,,,-00.001658000000,   0.08000,
,,,-00.001657000000,   0.08000,
,,,-00.001656000000,   0.08000,
,,,-00.001655000000,   0.08000,
,,,-00.001654000000,   0.08000,
,,,-00.001653000000,   0.00000,
,,,-00.001652000000,   0.08000,
,,,-00.001651000000,   0.08000,
,,,-00.001650000000,   0.08000,
,,,-00.001649000000,   0.08000,
,,,-00.001648000000,   0.08000,
,,,-00.001647000000,   0.08000,
,,,-00.001646000000,   0.08000,
,,,-00.001645000000,   0.08000,
,,,-00.001644000000,   0.08000,
,,,-00.001643000000,   0.08000,
,,,-00.001642000000,   0.08000,
,,,-00.001641000000,   0.08000,
,,,-00.001640000000,   0.08000,
,,,-00.001639000000,   0.08000,
,,,-00.001638000000,   0.08000,
,,,-00.001637000000,   0.08000,
,,,-00.001636000000,   0.08000,
,,,-00.001635000000,   0.08000,
,,,-00.001634000000,   0.08000,
,,,-00.001633000000,   0.08000,
,,,-00.001632000000,   0.08000,
,,,-00.001631000000,   0.08000,
,,,-00.001630000000,   0.08000,
,,,-00.001629000000,   0.08000,
,,,-00.001628000000,   0.08000,
,,,-00.001627000000,   0.08000,
,,,-00.001626000000,   0.08000,
,,,-00.001625000000,   0.08000,
,,,-00.001624000000,   0.08000,
,,,-00.001623000000,   0.08000,
,,,-00.001622000000,   0.08000,
,,,-00.001621000000,   0.08000,
,,,-00.001620000000,   0.08000,
,,,-00.001619000000,   0.08000,
,,,-00.001618000000,   0.08000,
,,,-00.001617000000,   0.08000,
,,,-00.001616000000,   0.08000,
,,,-00.001615000000,   0.08000,
,,,-00.001614000000,   0.08000,
,,,-00.001613000000,   0.08000,
,,,-00.001612000000,   0.08000,
,,,-00.001611000000,   0.08000,
,,,-00.001610000000,   0.08000,
,,,-00.001609000000,   0.08000,
,,,-00.001608000000,   0.08000,
,,,-00.001607000000,   0.08000,
,,,-00.001606000000,   0.08000,
,,,-00.001605000000,   0.00000,
,,,-00.001604000000,   0.08000,
,,,-00.001603000000,   0.08000,
,,,-00.001602000000,   0.08000,
,,,-00.001601000000,   0.08000,
,,,-00.001600000000,   0.08000,
,,,-00.001599000000,   0.08000,
,,,-00.001598000000,   0.00000,
,,,-00.001597000000,   0.08000,
,,,-00.001596000000,   0.08000,
,,,-00.001595000000,   0.08000,
,,,-00.001594000000,   0.08000,
,,,-00.001593000000,   0.08000,
,,,-00.001592000000,   0.08000,
,,,-00.001591000000,   0.08000,
,,,-00.001590000000,   0.08000,
,,,-00.001589000000,   0.08000,
,,,-00.001588000000,   0.08000,
,,,-00.001587000000,   0.08000,
,,,-00.001586000000,   0.08000,
,,,-00.001585000000,   0.08000,
,,,-00.001584000000,   0.08000,
,,,-00.001583000000,   0.08000,
,,,-00.001582000000,   0.08000,
,,,-00.001581000000,   0.08000,
,,,-00.001580000000,   0.08000,
,,,-00.001579000000,   0.08000,
,,,-00.001578000000,   0.08000,
,,,-00.001577000000,   0.08000,
,,,-00.001576000000,   0.08000,
,,,-00.001575000000,   0.08000,
,,,-00.001574000000,   0.08000,
,,,-00.001573000000,   0.08000,
,,,-00.001572000000,   0.08000,
,,,-00.001571000000,   0.08000,
,,,-00.001570000000,   0.08000,
,,,-00.001569000000,   0.08000,
,,,-00.001568000000,   0.00000,
,,,-00.001567000000,   0.08000,
,,,-00.001566000000,   0.08000,
,,,-00.001565000000,   0.08000,
,,,-00.001564000000,   0.08000,
,,,-00.001563000000,   0.08000,
,,,-00.001562000000,   0.08000,
,,,-00.001561000000,   0.08000,
,,,-00.001560000000,   0.08000,
,,,-00.001559000000,   0.08000,
,,,-00.001558000000,   0.08000,
,,,-00.001557000000,   0.08000,
,,,-00.001556000000,   0.08000,
,,,-00.001555000000,   0.08000,
,,,-00.001554000000,   0.08000,
,,,-00.001553000000,   0.08000,
,,,-00.001552000000,   0.08000,
,,,-00.001551000000,   0.08000,
,,,-00.001550000000,   0.08000,
,,,-00.001549000000,   0.08000,
,,,-00.001548000000,   0.08000,
,,,-00.001547000000,   0.08000,
,,,-00.001546000000,   0.08000,
,,,-00.001545000000,   0.08000,
,,,-00.001544000000,   0.08000,
,,,-00.001543000000,   0.08000,
,,,-00.001542000000,   0.08000,
,,,-00.001541000000,   0.00000,
,,,-00.001540000000,   0.08000,
,,,-00.001539000000,   0.08000,
,,,-00.001538000000,   0.08000,
,,,-00.001537000000,   0.08000,
,,,-00.001536000000,   0.08000,
,,,-00.001535000000,   0.08000,
,,,-00.001534000000,   0.08000,
,,,-00.001533000000,   0.08000,
,,,-00.001532000000,   0.00000,
,,,-00.001531000000,   0.08000,
,,,-00.001530000000,   0.08000,
,,,-00.001529000000,   0.08000,
,,,-00.001528000000,   0.08000,
,,,-00.001527000000,   0.08000,
,,,-00.001526000000,   0.08000,
,,,-00.001525000000,   0.08000,
,,,-00.001524000000,   0.08000,
,,,-00.001523000000,   0.08000,
,,,-00.001522000000,   0.08000,
,,,-00.001521000000,   0.08000,
,,,-00.001520000000,   0.08000,
,,,-00.001519000000,   0.08000,
,,,-00.001518000000,   0.08000,
,,,-00.001517000000,   0.08000,
,,,-00.001516000000,   0.08000,
,,,-00.001515000000,   0.08000,
,,,-00.001514000000,   0.08000,
,,,-00.001513000000,   0.08000,
,,,-00.001512000000,   0.08000,
,,,-00.001511000000,   0.08000,
,,,-00.001510000000,   0.08000,
,,,-00.001509000000,   0.08000,
,,,-00.001508000000,   0.08000,
,,,-00.001507000000,   0.00000,
,,,-00.001506000000,   0.08000,
,,,-00.001505000000,   0.08000,
,,,-00.001504000000,   0.08000,
,,,-00.001503000000,   0.08000,
,,,-00.001502000000,   0.08000,
,,,-00.001501000000,   0.08000,
,,,-00.001500000000,   0.08000,
,,,-00.001499000000,   0.08000,
,,,-00.001498000000,   0.08000,
,,,-00.001497000000,   0.08000,
,,,-00.001496000000,   0.08000,
,,,-00.001495000000,   0.08000,
,,,-00.001494000000,   0.08000,
,,,-00.001493000000,   0.08000,
,,,-00.001492000000,   0.08000,
,,,-00.001491000000,   0.08000,
,,,-00.001490000000,   0.08000,
,,,-00.001489000000,   0.08000,
,,,-00.001488000000,   0.08000,
,,,-00.001487000000,   0.08000,
,,,-00.001486000000,   0.08000,
,,,-00.001485000000,   0.08000,
,,,-00.001484000000,   0.08000,
,,,-00.001483000000,   0.08000,
,,,-00.001482000000,   0.08000,
,,,-00.001481000000,   0.08000,
,,,-00.001480000000,   0.08000,
,,,-00.001479000000,   0.08000,
,,,-00.001478000000,   0.08000,
,,,-00.001477000000,   0.08000,
,,,-00.001476000000,   0.08000,
,,,-00.001475000000,   0.00000,
,,,-00.001474000000,   0.08000,
,,,-00.001473000000,   0.08000,
,,,-00.001472000000,   0.08000,
,,,-00.001471000000,   0.08000,
,,,-00.001470000000,   0.08000,
,,,-00.001469000000,  -3.28000,
,,,-00.001468000000,  -4.24000,
,,,-00.001467000000,  -4.24000,
,,,-00.001466000000,  -4.24000,
,,,-00.001465000000,  -4.08000,
,,,-00.001464000000,  -3.92000,
,,,-00.001463000000,  -3.76000,
,,,-00.001462000000,  -3.68000,
,,,-00.001461000000,  -3.52000,
,,,-00.001460000000,  -3.44000,
,,,-00.001459000000,  -3.28000,
,,,-00.001458000000,  -3.20000,
,,,-00.001457000000,  -3.04000,
,,,-00.001456000000,  -2.96000,
,,,-00.001455000000,  -2.88000,
,,,-00.001454000000,  -2.80000,
,,,-00.001453000000,  -2.64000,
,,,-00.001452000000,  -2.56000,
,,,-00.001451000000,  -2.40000,
,,,-00.001450000000,  -2.32000,
,,,-00.001449000000,  -2.24000,
,,,-00.001448000000,  -2.16000,
,,,-00.001447000000,  -2.08000,
,,,-00.001446000000,  -2.00000,
,,,-00.001445000000,  -1.92000,
,,,-00.001444000000,  -1.92000,
,,,-00.001443000000,  -1.84000,
,,,-00.001442000000,  -1.76000,
,,,-00.001441000000,  -1.68000,
,,,-00.001440000000,  -1.68000,
,,,-00.001439000000,  -1.60000,
,,,-00.001438000000,  -1.52000,
,,,-00.001437000000,  -1.44000,
,,,-00.001436000000,  -1.36000,
,,,-00.001435000000,  -1.28000,
,,,-00.001434000000,  -1.36000,
,,,-00.001433000000,  -1.28000,
,,,-00.001432000000,  -1.20000,
,,,-00.001431000000,  -1.12000,
,,,-00.001430000000,  -1.12000,
,,,-00.001429000000,  -1.04000,
,,,-00.001428000000,  -0.96000,
,,,-00.001427000000,  -0.96000,
,,,-00.001426000000,  -0.96000,
,,,-00.001425000000,  -0.96000,
,,,-00.001424000000,  -0.96000,
,,,-00.001423000000,  -0.88000,
,,,-00.001422000000,  -0.88000,
,,,-00.001421000000,  -0.80000,
,,,-00.001420000000,  -0.80000,
,,,-00.001419000000,  -0.72000,
,,,-00.001418000000,  -0.72000,
,,,-00.001417000000,  -0.72000,
,,,-00.001416000000,  -0.64000,
,,,-00.001415000000,  -0.64000,
,,,-00.001414000000,  -0.64000,
,,,-00.001413000000,  -0.64000,
,,,-00.001412000000,  -0.56000,
,,,-00.001411000000,  -0.56000,
,,,-00.001410000000,  -0.56000,
,,,-00.001409000000,  -0.48000,
,,,-00.001408000000,  -0.48000,
,,,-00.001407000000,  -0.48000,
,,,-00.001406000000,  -0.48000,
,,,-00.001405000000,  -0.48000,
,,,-00.001404000000,  -0.40000,
,,,-00.001403000000,  -0.40000,
,,,-00.001402000000,  -0.40000,
,,,-00.001401000000,  -0.32000,
,,,-00.001400000000,  -0.40000,
,,,-00.001399000000,  -0.40000,
,,,-00.001398000000,  -0.32000,
,,,-00.001397000000,  -0.40000,
,,,-00.001396000000,  -0.32000,
,,,-00.001395000000,  -0.32000,
,,,-00.001394000000,  -0.32000,
,,,-00.001393000000,  -0.32000,
,,,-00.001392000000,  -0.24000,
,,,-00.001391000000,  -0.32000,
,,,-00.001390000000,  -0.32000,
,,,-00.001389000000,  -0.32000,
,,,-00.001388000000,  -0.24000,
,,,-00.001387000000,  -0.24000,
,,,-00.001386000000,  -0.24000,
,,,-00.001385000000,  -0.24000,
,,,-00.001384000000,  -0.24000,
,,,-00.001383000000,  -0.24000,
,,,-00.001382000000,  -0.16000,
,,,-00.001381000000,  -0.16000,
,,,-00.001380000000,  -0.16000,
,,,-00.001379000000,  -0.24000,
,,,-00.001378000000,  -0.16000,
,,,-00.001377000000,  -0.16000,
,,,-00.001376000000,  -0.16000,
,,,-00.001375000000,  -0.16000,
,,,-00.001374000000,  -0.24000,
,,,-00.001373000000,  -0.16000,
,,,-00.001372000000,  -0.16000,
,,,-00.001371000000,  -0.16000,
,,,-00.001370000000,  -0.16000,
,,,-00.001369000000,  -0.16000,
,,,-00.001368000000,  -0.16000,
,,,-00.001367000000,  -0.16000,
,,,-00.001366000000,  -0.08000,
,,,-00.001365000000,  -0.16000,
,,,-00.001364000000,  -0.16000,
,,,-00.001363000000,  -0.24000,
,,,-00.001362000000,  -0.08000,
,,,-00.001361000000,  -0.16000,
,,,-00.001360000000,  -0.08000,
,,,-00.001359000000,  -0.08000,
,,,-00.001358000000,  -0.08000,
,,,-00.001357000000,  -0.16000,
,,,-00.001356000000,  -0.08000,
,,,-00.001355000000,  -0.08000,
,,,-00.001354000000,  -0.08000,
,,,-00.001353000000,  -0.08000,
,,,-00.001352000000,  -0.08000,
,,,-00.001351000000,  -0.08000,
,,,-00.001350000000,  -0.08000,
,,,-00.001349000000,  -0.08000,
,,,-00.001348000000,  -0.08000,
,,,-00.001347000000,  -0.08000,
,,,-00.001346000000,  -0.08000,
,,,-00.001345000000,  -0.08000,
,,,-00.001344000000,  -0.08000,
,,,-00.001343000000,  -0.08000,
,,,-00.001342000000,   0.00000,
,,,-00.001341000000,  -0.08000,
,,,-00.001340000000,  -0.08000,
,,,-00.001339000000,  -0.08000,
,,,-00.001338000000,  -0.08000,
,,,-00.001337000000,  -0.08000,
,,,-00.001336000000,  -0.08000,
,,,-00.001335000000,  -0.08000,
,,,-00.001334000000,  -0.08000,
,,,-00.001333000000,  -0.08000,
,,,-00.001332000000,  -0.08000,
,,,-00.001331000000,  -0.08000,
,,,-00.001330000000,  -0.08000,
,,,-00.001329000000,  -0.08000,
,,,-00.001328000000,  -0.08000,
,,,-00.001327000000,  -0.08000,
,,,-00.001326000000,  -0.08000,
,,,-00.001325000000,  -0.08000,
,,,-00.001324000000,  -0.08000,
,,,-00.001323000000,  -0.08000,
,,,-00.001322000000,  -0.08000,
,,,-00.001321000000,   0.00000,
,,,-00.001320000000,  -0.08000,
,,,-00.001319000000,  -0.16000,
,,,-00.001318000000,  -0.08000,
,,,-00.001317000000,   0.00000,
,,,-00.001316000000,  -0.08000,
,,,-00.001315000000,  -0.08000,
,,,-00.001314000000,  -0.08000,
,,,-00.001313000000,  -0.08000,
,,,-00.001312000000,  -0.08000,
,,,-00.001311000000,  -0.08000,
,,,-00.001310000000,  -0.08000,
,,,-00.001309000000,  -0.08000,
,,,-00.001308000000,  -0.08000,
,,,-00.001307000000,  -0.08000,
,,,-00.001306000000,  -0.08000,
,,,-00.001305000000,  -0.08000,
,,,-00.001304000000,   0.00000,
,,,-00.001303000000,  -0.08000,
,,,-00.001302000000,  -0.08000,
,,,-00.001301000000,  -0.08000,
,,,-00.001300000000,  -0.08000,
,,,-00.001299000000,  -0.08000,
,,,-00.001298000000,   0.00000,
,,,-00.001297000000,  -0.08000,
,,,-00.001296000000,  -0.08000,
,,,-00.001295000000,  -0.08000,
,,,-00.001294000000,  -0.08000,
,,,-00.001293000000,  -0.08000,
,,,-00.001292000000,   0.00000,
,,,-00.001291000000,  -0.08000,
,,,-00.001290000000,  -0.08000,
,,,-00.001289000000,   0.00000,
,,,-00.001288000000,   0.00000,
,,,-00.001287000000,  -0.08000,
,,,-00.001286000000,  -0.08000,
,,,-00.001285000000,  -0.08000,
,,,-00.001284000000,  -0.08000,
,,,-00.001283000000,  -0.08000,
,,,-00.001282000000,  -0.08000,
,,,-00.001281000000,  -0.08000,
,,,-00.001280000000,  -0.08000,
,,,-00.001279000000,  -0.08000,
,,,-00.001278000000,  -0.08000,
,,,-00.001277000000,  -0.08000,
,,,-00.001276000000,  -0.08000,
,,,-00.001275000000,   0.00000,
,,,-00.001274000000,  -0.16000,
,,,-00.001273000000,  -0.08000,
,,,-00.001272000000,  -0.08000,
,,,-00.001271000000,   0.00000,
,,,-00.001270000000,  -0.08000,
,,,-00.001269000000,  -0.08000,
,,,-00.001268000000,   0.00000,
,,,-00.001267000000,  -0.08000,
,,,-00.001266000000,  -0.08000,
,,,-00.001265000000,  -0.08000,
,,,-00.001264000000,  -0.08000,
,,,-00.001263000000,   0.00000,
,,,-00.001262000000,  -0.08000,
,,,-00.001261000000,  -0.08000,
,,,-00.001260000000,  -0.08000,
,,,-00.001259000000,  -0.08000,
,,,-00.001258000000,  -0.08000,
,,,-00.001257000000,   0.00000,
,,,-00.001256000000,  -0.08000,
,,,-00.001255000000,  -0.08000,
,,,-00.001254000000,  -0.08000,
,,,-00.001253000000,  -0.08000,
,,,-00.001252000000,  -0.08000,
,,,-00.001251000000,  -0.08000,
,,,-00.001250000000,  -0.08000,
,,,-00.001249000000,  -0.08000,
,,,-00.001248000000,  -0.08000,
,,,-00.001247000000,   0.00000,
,,,-00.001246000000,  -0.08000,
,,,-00.001245000000,  -0.08000,
,,,-00.001244000000,  -0.08000,
,,,-00.001243000000,  -0.08000,
,,,-00.001242000000,  -0.08000,
,,,-00.001241000000,   0.00000,
,,,-00.001240000000,   0.00000,
,,,-00.001239000000,  -0.08000,
,,,-00.001238000000,  -0.08000,
,,,-00.001237000000,   0.00000,
,,,-00.001236000000,   0.00000,
,,,-00.001235000000,   0.00000,
,,,-00.001234000000,  -0.08000,
,,,-00.001233000000,   0.00000,
,,,-00.001232000000,  -0.08000,
,,,-00.001231000000,  -0.08000,
,,,-00.001230000000,  -0.08000,
,,,-00.001229000000,  -0.08000,
,,,-00.001228000000,  -0.08000,
,,,-00.001227000000,  -0.08000,
,,,-00.001226000000,  -0.08000,
,,,-00.001225000000,  -0.08000,
,,,-00.001224000000,  -0.08000,
,,,-00.001223000000,  -0.08000,
,,,-00.001222000000,  -0.08000,
,,,-00.001221000000,  -0.08000,
,,,-00.001220000000,  -0.08000,
,,,-00.001219000000,  -0.08000,
,,,-00.001218000000,  -0.08000,
,,,-00.001217000000,   0.00000,
,,,-00.001216000000,   0.00000,
,,,-00.001215000000,  -0.08000,
,,,-00.001214000000,  -0.08000,
,,,-00.001213000000,   0.00000,
,,,-00.001212000000,  -0.08000,
,,,-00.001211000000,  -0.08000,
,,,-00.001210000000,  -0.08000,
,,,-00.001209000000,  -0.08000,
,,,-00.001208000000,  -0.08000,
,,,-00.001207000000,  -0.08000,
,,,-00.001206000000,  -0.08000,
,,,-00.001205000000,  -0.08000,
,,,-00.001204000000,  -0.08000,
,,,-00.001203000000,  -0.08000,
,,,-00.001202000000,  -0.08000,
,,,-00.001201000000,  -0.08000,
,,,-00.001200000000,  -0.08000,
,,,-00.001199000000,  -0.08000,
,,,-00.001198000000,  -0.08000,
,,,-00.001197000000,  -0.08000,
,,,-00.001196000000,  -0.08000,
,,,-00.001195000000,  -0.08000,
,,,-00.001194000000,  -0.08000,
,,,-00.001193000000,   0.00000,
,,,-00.001192000000,   0.00000,
,,,-00.001191000000,  -0.08000,
,,,-00.001190000000,  -0.08000,
,,,-00.001189000000,   0.00000,
,,,-00.001188000000,  -0.08000,
,,,-00.001187000000,   0.00000,
,,,-00.001186000000,  -0.08000,
,,,-00.001185000000,  -0.08000,
,,,-00.001184000000,  -0.08000,
,,,-00.001183000000,  -0.08000,
,,,-00.001182000000,   0.00000,
,,,-00.001181000000,  -0.08000,
,,,-00.001180000000,  -0.08000,
,,,-00.001179000000,  -0.08000,
,,,-00.001178000000,  -0.08000,
,,,-00.001177000000,  -0.08000,
,,,-00.001176000000,  -0.08000,
,,,-00.001175000000,  -0.08000,
,,,-00.001174000000,  -0.08000,
,,,-00.001173000000,   0.00000,
,,,-00.001172000000,  -0.08000,
,,,-00.001171000000,  -0.08000,
,,,-00.001170000000,  -0.08000,
,,,-00.001169000000,  -0.08000,
,,,-00.001168000000,  -0.08000,
,,,-00.001167000000,  -0.08000,
,,,-00.001166000000,  -0.08000,
,,,-00.001165000000,  -0.08000,
,,,-00.001164000000,  -0.08000,
,,,-00.001163000000,  -0.08000,
,,,-00.001162000000,  -0.08000,
,,,-00.001161000000,  -0.08000,
,,,-00.001160000000,  -0.08000,
,,,-00.001159000000,  -0.08000,
,,,-00.001158000000,  -0.08000,
,,,-00.001157000000,  -0.08000,
,,,-00.001156000000,   0.00000,
,,,-00.001155000000,  -0.08000,
,,,-00.001154000000,  -0.08000,
,,,-00.001153000000,  -0.08000,
,,,-00.001152000000,  -0.08000,
,,,-00.001151000000,  -0.08000,
,,,-00.001150000000,  -0.08000,
,,,-00.001149000000,  -0.08000,
,,,-00.001148000000,  -0.08000,
,,,-00.001147000000,  -0.08000,
,,,-00.001146000000,  -0.08000,
,,,-00.001145000000,   0.00000,
,,,-00.001144000000,   0.00000,
,,,-00.001143000000,  -0.08000,
,,,-00.001142000000,  -0.08000,
,,,-00.001141000000,  -0.08000,
,,,-00.001140000000,  -0.08000,
,,,-00.001139000000,  -0.08000,
,,,-00.001138000000,  -0.08000,
,,,-00.001137000000,  -0.08000,
